PSet2
…
9/25/2019

library(babynames)
library(openintro)
library(tidyverse)

I arranged the data set and found that the top ten most common baby names were as follows: James, John, Robert, Michael, Mary, William, David, Joseph, Richard, and Charles. By viewing the table below you can see the corresponding number of babies born with each name between the period of 1880-2017.

babynames %>%
  group_by(name) %>%
  summarize(number = sum(n)) %>%
  arrange(-number)

## # A tibble: 97,310 x 2
##    name     number
##    <chr>     <int>
##  1 James   5173828
##  2 John    5137142
##  3 Robert  4834915
##  4 Michael 4372536
##  5 Mary    4138360
##  6 William 4118553
##  7 David   3624225
##  8 Joseph  2614083
##  9 Richard 2572613
## 10 Charles 2398453
## #  with 97,300 more rows
…
## # A tibble: 1 x 2
##    year  births
##   <dbl>   <int>
## 1  2000 3778079

First I ran the code below to find a list of the longest names given to at least 1000 babies. Maryelizabeth was the longest name, with 13 characters.

babynames %>%
  group_by(name) %>%
  filter(sum(n) >1000) %>%
  mutate(name.length = nchar(name, type = "chars")) %>%
  arrange(-name.length)

## # A tibble: 943,482 x 6
## # Groups:   name [10,566]
##     year sex   name              n       prop name.length
##    <dbl> <chr> <chr>         <int>      <dbl>       <int>
##  1  1906 F     Maryelizabeth     5 0.0000160           13
##  2  1907 F     Maryelizabeth     5 0.0000148           13
##  3  1909 F     Maryelizabeth     5 0.0000136           13
##  4  1910 F     Maryelizabeth     7 0.0000167           13
##  5  1911 F     Maryelizabeth     5 0.0000113           13
##  6  1912 F     Maryelizabeth     9 0.0000153           13
##  7  1913 F     Maryelizabeth    14 0.0000214           13
##  8  1914 F     Maryelizabeth     5 0.00000628          13
##  9  1915 F     Maryelizabeth    15 0.0000146           13
## 10  1916 F     Maryelizabeth    11 0.0000101           13
## #  with 943,472 more rows

I then ran the next block, filtering out Christopher so I could see which name was second longest. I found that Michaelangelo, also length 13, was given to over 1000 babies as well.

babynames %>%
  group_by(name) %>%
  filter(sum(n) >1000) %>%
  filter(name != "Maryelizabeth") %>%
  mutate(name.length = nchar(name, type = "chars")) %>%
  arrange(-name.length)

## # A tibble: 943,387 x 6
## # Groups:   name [10,565]
##     year sex   name              n       prop name.length
##    <dbl> <chr> <chr>         <int>      <dbl>       <int>
##  1  1962 M     Michaelangelo     5 0.00000238          13
##  2  1966 M     Michaelangelo     6 0.0000033           13
##  3  1968 M     Michaelangelo    12 0.00000676          13
##  4  1969 M     Michaelangelo     6 0.00000328          13
##  5  1970 M     Michaelangelo     7 0.00000367          13
##  6  1971 M     Michaelangelo     8 0.0000044           13
##  7  1972 M     Michaelangelo     7 0.00000418          13
##  8  1973 M     Michaelangelo     5 0.0000031           13
##  9  1974 M     Michaelangelo     9 0.00000552          13
## 10  1975 M     Michaelangelo     8 0.00000493          13
## #  with 943,377 more rows
…
Using this data set, I then made a new calculation to see which names had the biggest change in gender association in 1880 vs 2017. I found that three names, Donnie, Leslie, and Robbie all changed dramatically, so I chose to include these three names in my final graph.

setup %>%
  filter(year %in% c(1880, 2017)) %>%
  filter(sex == "F") %>%
  group_by(name) %>%
  summarize(some.math = max(proportion) - min(proportion)) %>%
  arrange(-some.math)

## # A tibble: 18,545 x 2
##    name   some.math
##    <chr>      <dbl>
##  1 Donnie      1.90
##  2 Leslie      1.70
##  3 Robbie      1.51
##  4 Clair       1.41
##  5 Lynn        1.34
##  6 Vinnie      1.29
##  7 Leone       1.26
##  8 Isa         1.20
##  9 Lacy        1.2 
## 10 Joan        1.15
## #  with 18,535 more rows
…
